{
  "Actor": {
    "types": ["character"],
    "character": {
      "player": "",
      "name": "",
      "level": "1",
      "gender": "",
      "race": {
        "value": "Hume",
        "values": ["Hume"],
        "label": "Race"
      },
      "hair": "",
      "eyes": "",
      "size": {
        "value": "5",
        "label": "Size"
      },
      "sizes": {
        "1": {
          "label": "Fine",
          "dtype": "Number"
        },
        "2": {
          "label": "Diminutive",
          "dtype": "Number"
        },
        "3": {
          "label": "Tiny",
          "dtype": "Number"
        },
        "4": {
          "label": "Small",
          "dtype": "Number"
        },
        "5": {
          "label": "Medium",
          "dtype": "Number"
        },
        "6": {
          "label": "Large",
          "dtype": "Number"
        },
        "7": {
          "label": "Huge",
          "dtype": "Number"
        },
        "8": {
          "label": "Gargantuan",
          "dtype": "Number"
        },
        "9": {
          "label": "Collosal",
          "dtype": "Number"
        }
      },
      "age": "",
      "height": "",
      "height-unit": "imp",
      "height-units": {
        "imp": {
          "label": "Inches",
          "dtype": "String"
        },
        "met": {
          "label": "Centimeters",
          "dtype": "String"
        }
      },
      "mass": "",
      "mass-unit": "imp",
      "mass-units": {
        "imp": {
          "label": "Pounds",
          "dtype": "String"
        },
        "met": {
          "label": "Kilograms",
          "dtype": "String"
        }
      },
      "class": {
        "value": "Freelancer",
        "values": ["Freelancer"],
        "label": "Class"
      },
      "alignment": "",
      "religion": "",
      "homeland": "",
      "health": {
        "value": 10,
        "min": 0,
        "max": 10
      },
      "power": {
        "value": 5,
        "min": 0,
        "max": 5
      },
      "attributes": {
        "stats": {
          "strength": {
            "value": 1,
            "label": "Strength",
            "modifier": []
          },
          "dexterity": {
            "value": 1,
            "label": "Dexterity",
            "modifier": []
          },
          "constitution": {
            "value": 1,
            "label": "Constitution",
            "modifier": []
          },
          "intelligence": {
            "value": 1,
            "label": "Intelligence",
            "modifier": []
          },
          "wisdom": {
            "value": 1,
            "label": "Wisdom",
            "modifier": []
          },
          "charisma": {
            "value": 1,
            "label": "Charisma",
            "modifier": []
          }
        },
        "saves": {
          "fortitude": {
            "value": 1,
            "label": "Fortitude"
          },
          "reflex": {
            "value": 1,
            "label": "Reflex"
          },
          "will": {
            "value": 1,
            "label": "Will"
          }
        },
        "cur_hp": {
          "value": 1,
          "label": "Current HP",
          "modifier": []
        },
        "max_hp": {
          "value": 1,
          "label": "HP Maximum",
          "modifier": []
        }
      },
      "races": {
        "Dwarf": {
          "label": "Dwarf",
          "strength": 0,
          "dexterity": 0,
          "constitution": 2,
          "intelligence": 0,
          "wisdom": 2,
          "charisma": -2,
          "size": 5,
          "speed": 20,
          "vision_dark": 90,
          "vision_dark_greater": 60,
          "vision_lowlight": true,
          "scent": false,
          "other_sense": 0,
          "other_sense_name": "",
          "archetypes": [
            "Dwarven_Crossbowyer",
            "Foehammer",
            "Forgemaster",
            "Stonelord",
            "Student of the Stone"
          ]
        },
        "Elvaan": {
          "label": "Elvaan",
          "strength": 2,
          "dexterity": -2,
          "constitution": 0,
          "intelligence": 0,
          "wisdom": 2,
          "charisma": 0,
          "size": 5,
          "speed": 30,
          "vision_dark": 60,
          "vision_dark_greater": 0,
          "vision_lowlight": true,
          "scent": false,
          "other_sense": 0,
          "other_sense_name": "",
          "archetypes": ["Academician", "Keeper", "Spell Dancer"]
        },
        "Galka": {
          "label": "Galka",
          "strength": 2,
          "dexterity": 0,
          "constitution": 0,
          "intelligence": 0,
          "wisdom": 2,
          "charisma": -2,
          "size": 5,
          "speed": 20,
          "vision_dark": 60,
          "vision_dark_greater": 0,
          "vision_lowlight": true,
          "scent": false,
          "other_sense": 0,
          "other_sense_name": "",
          "archetypes": ["Fell Rider", "Ironskin Monk", "Skulking Slayer"]
        },
        "Hume": {
          "label": "Hume",
          "strength": 0,
          "dexterity": 0,
          "constitution": 0,
          "intelligence": 0,
          "wisdom": 0,
          "charisma": 0,
          "size": 5,
          "speed": 30,
          "vision_dark": 0,
          "vision_dark_greater": 0,
          "vision_lowlight": false,
          "scent": false,
          "other_sense": 0,
          "other_sense_name": "",
          "archetypes": ["Buccaneer", "Feral Child", "Generalist", "Wanderer"]
        },
        "Mithra": {
          "label": "Mithra",
          "strength": 0,
          "dexterity": 2,
          "constitution": 0,
          "intelligence": 0,
          "wisdom": -2,
          "charisma": 2,
          "size": 5,
          "speed": 30,
          "vision_dark": 0,
          "vision_dark_greater": 0,
          "vision_lowlight": true,
          "scent": true,
          "other_sense": 0,
          "other_sense_name": "",
          "archetypes": ["Cat Burglar", "Nimble Guardian"]
        },
        "Moogle": {
          "label": "Moogle",
          "strength": -2,
          "dexterity": 2,
          "constitution": 0,
          "intelligence": 0,
          "wisdom": 0,
          "charisma": 2,
          "size": 4,
          "speed": 20,
          "vision_dark": 60,
          "vision_dark_greater": 0,
          "vision_lowlight": true,
          "scent": false,
          "other_sense": 0,
          "other_sense_name": "",
          "archetypes": [
            "Experimental Gunsmith",
            "Mog Knight",
            "Prankster",
            "Geodancer"
          ]
        },
        "Tarutaru": {
          "label": "Tarutaru",
          "strength": -2,
          "dexterity": 2,
          "constitution": 0,
          "intelligence": 2,
          "wisdom": 0,
          "charisma": 0,
          "size": 4,
          "speed": 20,
          "vision_dark": 0,
          "vision_dark_greater": 0,
          "vision_lowlight": true,
          "scent": false,
          "other_sense": 0,
          "other_sense_name": "",
          "archetypes": ["Diminutive Adept", "Filcher", "Order of the Bird"]
        },
        "Aegyl": {
          "label": "Aegyl",
          "strength": 0,
          "dexterity": 2,
          "constitution": -2,
          "intelligence": 0,
          "wisdom": 2,
          "charisma": -2,
          "size": 5,
          "speed": 30,
          "vision_dark": 0,
          "vision_dark_greater": 0,
          "vision_lowlight": true,
          "scent": false,
          "other_sense": 0,
          "other_sense_name": "",
          "archetypes": ["Airborne Ambusher", "Skyseer"]
        },
        "Al Bhed": {
          "label": "Al Bhed",
          "strength": 0,
          "dexterity": 2,
          "constitution": 0,
          "intelligence": 2,
          "wisdom": 0,
          "charisma": -2,
          "size": 5,
          "speed": 30,
          "vision_dark": 0,
          "vision_dark_greater": 0,
          "vision_lowlight": false,
          "scent": false,
          "other_sense": 0,
          "other_sense_name": "",
          "archetypes": ["Psyche", "Tinker"]
        },
        "Au Ra (Raen)": {
          "label": "Au Ra (Raen)",
          "strength": 0,
          "dexterity": 2,
          "constitution": -2,
          "intelligence": 0,
          "wisdom": 0,
          "charisma": 2,
          "size": 5,
          "speed": 30,
          "vision_dark": 60,
          "vision_dark_greater": 0,
          "vision_lowlight": false,
          "scent": false,
          "other_sense": 0,
          "other_sense_name": "",
          "archetypes": ["Daemonic Flayer", "Daemonic Vessel"]
        },
        "Au Ra (Xaela)": {
          "label": "Au Ra (Xaela)",
          "strength": 2,
          "dexterity": 0,
          "constitution": 0,
          "intelligence": 0,
          "wisdom": 2,
          "charisma": -2,
          "size": 5,
          "speed": 30,
          "vision_dark": 60,
          "vision_dark_greater": 0,
          "vision_lowlight": false,
          "scent": false,
          "other_sense": 0,
          "other_sense_name": "",
          "archetypes": ["Daemonic Flayer", "Daemonic Vessel"]
        },
        "Bangaa": {
          "label": "Bangaa",
          "strength": 0,
          "dexterity": 2,
          "constitution": 0,
          "intelligence": -2,
          "wisdom": 2,
          "charisma": 0,
          "size": 5,
          "speed": 30,
          "vision_dark": 0,
          "vision_dark_greater": 0,
          "vision_lowlight": true,
          "scent": true,
          "other_sense": 0,
          "other_sense_name": "",
          "archetypes": ["Featherweight", "Pugilist"]
        },
        "Burmecian": {
          "label": "Burmecian",
          "strength": 0,
          "dexterity": 2,
          "constitution": 0,
          "intelligence": 2,
          "wisdom": 0,
          "charisma": -2,
          "size": 5,
          "speed": 30,
          "vision_dark": 0,
          "vision_dark_greater": 0,
          "vision_lowlight": false,
          "scent": true,
          "other_sense": 0,
          "other_sense_name": "",
          "archetypes": ["Gulch Gunner", "Plague Bringer"]
        },
        "Garif": {
          "label": "Garif",
          "strength": 0,
          "dexterity": 0,
          "constitution": 2,
          "intelligence": -2,
          "wisdom": 2,
          "charisma": 0,
          "size": 5,
          "speed": 30,
          "vision_dark": 0,
          "vision_dark_greater": 0,
          "vision_lowlight": true,
          "scent": false,
          "other_sense": 0,
          "other_sense_name": "",
          "archetypes": ["Peacekeeper", "Tranquil Guardian"]
        },
        "Garlean": {
          "label": "Garlean",
          "strength": 0,
          "dexterity": 0,
          "constitution": 2,
          "intelligence": 2,
          "wisdom": -2,
          "charisma": 0,
          "size": 5,
          "speed": 30,
          "vision_dark": 0,
          "vision_dark_greater": 0,
          "vision_lowlight": false,
          "scent": false,
          "other_sense": 0,
          "other_sense_name": "",
          "archetypes": ["Commandant", "Legionnaire"]
        },
        "Genome": {
          "label": "Genome",
          "strength": 0,
          "dexterity": 2,
          "constitution": 0,
          "intelligence": 2,
          "wisdom": 0,
          "charisma": -2,
          "size": 5,
          "speed": 30,
          "vision_dark": 0,
          "vision_dark_greater": 0,
          "vision_lowlight": false,
          "scent": false,
          "other_sense": 0,
          "other_sense_name": "",
          "archetypes": ["Empty Vessel", "Trance Dancer"]
        },
        "Gria": {
          "label": "Gria",
          "strength": 2,
          "dexterity": 0,
          "constitution": 0,
          "intelligence": 0,
          "wisdom": -2,
          "charisma": 2,
          "size": 5,
          "speed": 30,
          "vision_dark": 0,
          "vision_dark_greater": 0,
          "vision_lowlight": true,
          "scent": false,
          "other_sense": 0,
          "other_sense_name": "",
          "archetypes": [
            "Dragon Herald",
            "Dragoner",
            "Scaled Fist",
            "Trickster",
            "Wyrmfang Brawler"
          ]
        },
        "Guado": {
          "label": "Guado",
          "strength": 0,
          "dexterity": 0,
          "constitution": -2,
          "intelligence": 2,
          "wisdom": 2,
          "charisma": 0,
          "size": 5,
          "speed": 30,
          "vision_dark": 0,
          "vision_dark_greater": 0,
          "vision_lowlight": false,
          "scent": true,
          "other_sense": 60,
          "other_sense_name": "Carrion Sense",
          "archetypes": ["Exorcist", "Fiend Trainer"]
        },
        "Hypello": {
          "label": "Hypello",
          "strength": 0,
          "dexterity": 2,
          "constitution": 2,
          "intelligence": 0,
          "wisdom": 0,
          "charisma": 0,
          "size": 5,
          "speed": 20,
          "vision_dark": 60,
          "vision_dark_greater": 0,
          "vision_lowlight": false,
          "scent": false,
          "other_sense": 0,
          "other_sense_name": "",
          "archetypes": ["Drigagoonie", "Yabbleshammy Archer"]
        },
        "Immortal": {
          "label": "Immortal",
          "strength": 0,
          "dexterity": 0,
          "constitution": 0,
          "intelligence": 0,
          "wisdom": 0,
          "charisma": 0,
          "size": 5,
          "speed": 30,
          "vision_dark": 0,
          "vision_dark_greater": 0,
          "vision_lowlight": false,
          "scent": false,
          "other_sense": 0,
          "other_sense_name": "",
          "archetypes": ["Highlander", "Sworn Protector"]
        },
        "Lambkin": {
          "label": "Lambkin",
          "strength": 0,
          "dexterity": 0,
          "constitution": -2,
          "intelligence": 2,
          "wisdom": 2,
          "charisma": 0,
          "size": 4,
          "speed": 20,
          "vision_dark": 0,
          "vision_dark_greater": 0,
          "vision_lowlight": true,
          "scent": false,
          "other_sense": 0,
          "other_sense_name": "",
          "archetypes": ["Wind Sorcerer"]
        },
        "Mandragora": {
          "label": "Mandragora",
          "strength": 0,
          "dexterity": 2,
          "constitution": -2,
          "intelligence": 0,
          "wisdom": 2,
          "charisma": 0,
          "size": 4,
          "speed": 20,
          "vision_dark": 60,
          "vision_dark_greater": 0,
          "vision_lowlight": true,
          "scent": false,
          "other_sense": 0,
          "other_sense_name": "",
          "archetypes": [
            "Herbalist",
            "Naturalizt",
            "Tree Guardian",
            "Treezerker",
            "Verdant Rider",
            "Verdant Striker"
          ]
        },
        "Moomba": {
          "label": "Moomba",
          "strength": 0,
          "dexterity": 0,
          "constitution": 2,
          "intelligence": -2,
          "wisdom": 0,
          "charisma": 2,
          "size": 4,
          "speed": 40,
          "vision_dark": 60,
          "vision_dark_greater": 0,
          "vision_lowlight": false,
          "scent": false,
          "other_sense": 0,
          "other_sense_name": "",
          "archetypes": ["Blur", "Item Master"]
        },
        "Nu Mou": {
          "label": "Nu Mou",
          "strength": 0,
          "dexterity": 0,
          "constitution": -2,
          "intelligence": 2,
          "wisdom": 2,
          "charisma": 0,
          "size": 4,
          "speed": 20,
          "vision_dark": 0,
          "vision_dark_greater": 0,
          "vision_lowlight": true,
          "scent": false,
          "other_sense": 0,
          "other_sense_name": "",
          "archetypes": ["Eldritch Raider", "Elemental Knight", "Spellshaper"]
        },
        "Palico": {
          "label": "Palico",
          "strength": 2,
          "dexterity": 4,
          "constitution": 0,
          "intelligence": 0,
          "wisdom": -2,
          "charisma": 0,
          "size": 4,
          "speed": 30,
          "vision_dark": 0,
          "vision_dark_greater": 0,
          "vision_lowlight": true,
          "scent": true,
          "other_sense": 0,
          "other_sense_name": "",
          "archetypes": ["Meowfist", "Meowsterful Rager", "Prowler", "Yapper"]
        },
        "Qu": {
          "label": "Qu",
          "strength": 0,
          "dexterity": 0,
          "constitution": 2,
          "intelligence": 2,
          "wisdom": 0,
          "charisma": -2,
          "size": 5,
          "speed": 30,
          "vision_dark": 0,
          "vision_dark_greater": 0,
          "vision_lowlight": false,
          "scent": true,
          "other_sense": 0,
          "other_sense_name": "",
          "archetypes": ["Primal Mage", "Redeemer"]
        },
        "Roegadyn": {
          "label": "Roegadyn",
          "strength": 2,
          "dexterity": -2,
          "constitution": 0,
          "intelligence": 0,
          "wisdom": 0,
          "charisma": 2,
          "size": 5,
          "speed": 30,
          "vision_dark": 0,
          "vision_dark_greater": 0,
          "vision_lowlight": true,
          "scent": false,
          "other_sense": 0,
          "other_sense_name": "",
          "archetypes": ["Hells Guard", "Sea Wolf"]
        },
        "Ronso": {
          "label": "Ronso",
          "strength": 2,
          "dexterity": 0,
          "constitution": 0,
          "intelligence": 0,
          "wisdom": 2,
          "charisma": -2,
          "size": 5,
          "speed": 30,
          "vision_dark": 60,
          "vision_dark_greater": 0,
          "vision_lowlight": false,
          "scent": false,
          "other_sense": 0,
          "other_sense_name": "",
          "archetypes": ["Cerulean Lancer", "Feral Gnasher"]
        },
        "Seeq": {
          "label": "Seeq",
          "strength": 0,
          "dexterity": 0,
          "constitution": 2,
          "intelligence": -2,
          "wisdom": 2,
          "charisma": 0,
          "size": 5,
          "speed": 30,
          "vision_dark": 60,
          "vision_dark_greater": 0,
          "vision_lowlight": true,
          "scent": true,
          "other_sense": 0,
          "other_sense_name": "",
          "archetypes": ["Dirty Fighter", "Heavyweight", "Thug"]
        },
        "Shindroid": {
          "label": "Shindroid",
          "strength": 0,
          "dexterity": 2,
          "constitution": 0,
          "intelligence": 2,
          "wisdom": 0,
          "charisma": -2,
          "size": 5,
          "speed": 30,
          "vision_dark": 60,
          "vision_dark_greater": 0,
          "vision_lowlight": true,
          "scent": false,
          "other_sense": 0,
          "other_sense_name": "",
          "archetypes": ["Juggernaut", "Ravager", "Warmech"]
        },
        "Tonkin": {
          "label": "Tonkin",
          "strength": 2,
          "dexterity": 2,
          "constitution": 0,
          "intelligence": 0,
          "wisdom": 2,
          "charisma": 0,
          "size": 4,
          "speed": 20,
          "vision_dark": 0,
          "vision_dark_greater": 0,
          "vision_lowlight": true,
          "scent": false,
          "other_sense": 0,
          "other_sense_name": "",
          "archetypes": ["Grudge Holder", "Knife Master", "Lantern-Bearer"]
        },
        "Varg": {
          "label": "Varg",
          "strength": 2,
          "dexterity": 0,
          "constitution": 0,
          "intelligence": 0,
          "wisdom": 2,
          "charisma": -2,
          "size": 5,
          "speed": 30,
          "vision_dark": 60,
          "vision_dark_greater": 0,
          "vision_lowlight": false,
          "scent": true,
          "other_sense": 0,
          "other_sense_name": "",
          "archetypes": ["Mooncaller", "Pack-Bonded Hunter"]
        },
        "Viera": {
          "label": "Viera",
          "strength": 0,
          "dexterity": 2,
          "constitution": -2,
          "intelligence": 0,
          "wisdom": 2,
          "charisma": 0,
          "size": 5,
          "speed": 30,
          "vision_dark": 0,
          "vision_dark_greater": 0,
          "vision_lowlight": true,
          "scent": false,
          "other_sense": 0,
          "other_sense_name": "",
          "archetypes": [
            "Deadly Courtesan",
            "Treetop Monk",
            "Wild Shadow",
            "Woodland Stalker"
          ]
        },
        "Amalj_aa": {
          "label": "Amalj_aa",
          "strength": 2,
          "dexterity": -2,
          "constitution": 0,
          "intelligence": 0,
          "wisdom": 2,
          "charisma": 0,
          "size": 5,
          "speed": 30,
          "vision_dark": 60,
          "vision_dark_greater": 0,
          "vision_lowlight": false,
          "scent": false,
          "other_sense": 0,
          "other_sense_name": "",
          "archetypes": ["Bowgunner", "Flamecaller"]
        },
        "Antica": {
          "label": "Antica",
          "strength": 2,
          "dexterity": 0,
          "constitution": 2,
          "intelligence": 0,
          "wisdom": -2,
          "charisma": -2,
          "size": 5,
          "speed": 30,
          "vision_dark": 60,
          "vision_dark_greater": 0,
          "vision_lowlight": false,
          "scent": true,
          "other_sense": 0,
          "other_sense_name": "",
          "archetypes": ["Antrider", "Signifier"]
        },
        "Gnath": {
          "label": "Gnath",
          "strength": 4,
          "dexterity": 2,
          "constitution": 0,
          "intelligence": 0,
          "wisdom": 2,
          "charisma": 0,
          "size": 4,
          "speed": 20,
          "vision_dark": 60,
          "vision_dark_greater": 0,
          "vision_lowlight": true,
          "scent": false,
          "other_sense": 60,
          "other_sense_name": "Carrion Sense",
          "archetypes": ["Swarm Fighter", "Swarm Shifter"]
        },
        "Goblin": {
          "label": "Goblin",
          "strength": 2,
          "dexterity": 2,
          "constitution": 0,
          "intelligence": 2,
          "wisdom": 0,
          "charisma": 0,
          "size": 4,
          "speed": 30,
          "vision_dark": 0,
          "vision_dark_greater": 0,
          "vision_lowlight": true,
          "scent": false,
          "other_sense": 0,
          "other_sense_name": "",
          "archetypes": ["Fire Bomber", "Pyromancer"]
        },
        "Ixal": {
          "label": "Ixal",
          "strength": 0,
          "dexterity": 2,
          "constitution": 0,
          "intelligence": 2,
          "wisdom": -2,
          "charisma": 0,
          "size": 5,
          "speed": 30,
          "vision_dark": 0,
          "vision_dark_greater": 0,
          "vision_lowlight": true,
          "scent": false,
          "other_sense": 0,
          "other_sense_name": "",
          "archetypes": ["Windleaper", "Windrider"]
        },
        "Kobold": {
          "label": "Kobold",
          "strength": 0,
          "dexterity": 2,
          "constitution": 0,
          "intelligence": 2,
          "wisdom": 0,
          "charisma": -2,
          "size": 5,
          "speed": 20,
          "vision_dark": 0,
          "vision_dark_greater": 0,
          "vision_lowlight": true,
          "scent": true,
          "other_sense": 0,
          "other_sense_name": "",
          "archetypes": ["Bushwacker", "Tunneler"]
        },
        "Kojin": {
          "label": "Kojin",
          "strength": 0,
          "dexterity": 0,
          "constitution": 2,
          "intelligence": 0,
          "wisdom": 2,
          "charisma": -2,
          "size": 5,
          "speed": 30,
          "vision_dark": 60,
          "vision_dark_greater": 0,
          "vision_lowlight": true,
          "scent": false,
          "other_sense": 60,
          "other_sense_name": "Water Sense",
          "archetypes": ["Defiant Testudo", "Votary"]
        },
        "Lamia": {
          "label": "Lamia",
          "strength": 2,
          "dexterity": 2,
          "constitution": 0,
          "intelligence": 0,
          "wisdom": 0,
          "charisma": 2,
          "size": 5,
          "speed": 20,
          "vision_dark": 60,
          "vision_dark_greater": 0,
          "vision_lowlight": true,
          "scent": false,
          "other_sense": 0,
          "other_sense_name": "",
          "archetypes": ["Serpent Archer", "Watersinger", "Aqua Adept"]
        },
        "Loporrit": {
          "label": "Loporrit",
          "strength": 0,
          "dexterity": 2,
          "constitution": 0,
          "intelligence": 2,
          "wisdom": -2,
          "charisma": 0,
          "size": 4,
          "speed": 40,
          "vision_dark": 0,
          "vision_dark_greater": 0,
          "vision_lowlight": true,
          "scent": true,
          "other_sense": 0,
          "other_sense_name": "",
          "archetypes": []
        },
        "Matanga": {
          "label": "Matanga",
          "strength": 0,
          "dexterity": -2,
          "constitution": 2,
          "intelligence": 2,
          "wisdom": 0,
          "charisma": 0,
          "size": 5,
          "speed": 30,
          "vision_dark": 0,
          "vision_dark_greater": 0,
          "vision_lowlight": true,
          "scent": false,
          "other_sense": 0,
          "other_sense_name": "",
          "archetypes": []
        },
        "Namazu": {
          "label": "Namazu",
          "strength": 0,
          "dexterity": 2,
          "constitution": -2,
          "intelligence": 0,
          "wisdom": 0,
          "charisma": 2,
          "size": 4,
          "speed": 30,
          "vision_dark": 0,
          "vision_dark_greater": 0,
          "vision_lowlight": false,
          "scent": false,
          "other_sense": 60,
          "other_sense_name": "Water Sense",
          "archetypes": ["Cacophonist", "High Roller", "Mikoshi Leader"]
        },
        "Orc": {
          "label": "Orc",
          "strength": 4,
          "dexterity": 0,
          "constitution": 0,
          "intelligence": -2,
          "wisdom": -2,
          "charisma": -2,
          "size": 5,
          "speed": 30,
          "vision_dark": 60,
          "vision_dark_greater": 0,
          "vision_lowlight": true,
          "scent": false,
          "other_sense": 0,
          "other_sense_name": "",
          "archetypes": ["Blackarrow", "Hateful Rager", "Orc Fury", "Warleader"]
        },
        "Qiqirn": {
          "label": "Qiqirn",
          "strength": 0,
          "dexterity": 2,
          "constitution": 0,
          "intelligence": 0,
          "wisdom": -2,
          "charisma": 2,
          "size": 5,
          "speed": 30,
          "vision_dark": 0,
          "vision_dark_greater": 0,
          "vision_lowlight": false,
          "scent": true,
          "other_sense": 0,
          "other_sense_name": "",
          "archetypes": ["Gilsweeper", "Temporal Nomad"]
        },
        "Quadav": {
          "label": "Quadav",
          "strength": 0,
          "dexterity": -2,
          "constitution": 2,
          "intelligence": 0,
          "wisdom": 2,
          "charisma": 0,
          "size": 5,
          "speed": 20,
          "vision_dark": 60,
          "vision_dark_greater": 0,
          "vision_lowlight": true,
          "scent": false,
          "other_sense": 0,
          "other_sense_name": "",
          "archetypes": ["Jewel Knight", "Shell Knight"]
        },
        "Sahagin": {
          "label": "Sahagin",
          "strength": 2,
          "dexterity": 0,
          "constitution": 0,
          "intelligence": 0,
          "wisdom": 2,
          "charisma": -2,
          "size": 5,
          "speed": 30,
          "vision_dark": 60,
          "vision_dark_greater": 0,
          "vision_lowlight": true,
          "scent": false,
          "other_sense": 60,
          "other_sense_name": "Deepsight",
          "archetypes": ["Silent Wave", "Wave Warden"]
        },
        "Sylph": {
          "label": "Sylph",
          "strength": 4,
          "dexterity": 2,
          "constitution": 0,
          "intelligence": 0,
          "wisdom": 0,
          "charisma": 2,
          "size": 4,
          "speed": 20,
          "vision_dark": 0,
          "vision_dark_greater": 0,
          "vision_lowlight": true,
          "scent": false,
          "other_sense": 0,
          "other_sense_name": "",
          "archetypes": ["Aeromancer", "Wind Listener"]
        },
        "Vanu Vanu": {
          "label": "Vanu Vanu",
          "strength": 0,
          "dexterity": 0,
          "constitution": 2,
          "intelligence": -2,
          "wisdom": 2,
          "charisma": 0,
          "size": 5,
          "speed": 30,
          "vision_dark": 0,
          "vision_dark_greater": 0,
          "vision_lowlight": true,
          "scent": false,
          "other_sense": 0,
          "other_sense_name": "",
          "archetypes": ["Bismarckian Subjugator", "Sundrop Storm"]
        },
        "Yagudo": {
          "label": "Yagudo",
          "strength": 0,
          "dexterity": 2,
          "constitution": -2,
          "intelligence": 0,
          "wisdom": 2,
          "charisma": 0,
          "size": 5,
          "speed": 30,
          "vision_dark": 0,
          "vision_dark_greater": 0,
          "vision_lowlight": true,
          "scent": false,
          "other_sense": 0,
          "other_sense_name": "",
          "archetypes": ["Nokizaru", "Swordmaster"]
        }
      },
      "classes": {
        "Archer": {
          "label": "Archer",
          "description": "Patient and accurate, Archers are masters of the bow and crossbow.  ",
          "hit_dice": "d8",
          "skill_points": 6,
          "bab": 0.75,
          "fort": "Bad",
          "ref": "Good",
          "will": "Bad"
        },
        "Bard": {
          "label": "Bard",
          "description": "Performance artists of the highest caliber, Bards’ songs buff allies and hamper foes. ",
          "hit_dice": "d8",
          "skill_points": 6,
          "bab": 0.75,
          "fort": "Bad",
          "ref": "Good",
          "will": "Good"
        },
        "Beastmaster": {
          "label": "Beastmaster",
          "description": "Beastmasters seek a return to the simple ways of nature, and by tooth and claw, they will attain it.  ",
          "hit_dice": "d10",
          "skill_points": 4,
          "bab": 1.0,
          "fort": "Good",
          "ref": "Good",
          "will": "Bad"
        },
        "Black Mage": {
          "label": "Black Mage",
          "description": "Black Mages seek nothing less than mastery over magical destruction and enfeeblement. ",
          "hit_dice": "d6",
          "skill_points": 4,
          "bab": 0.5,
          "fort": "Bad",
          "ref": "Bad",
          "will": "Good"
        },
        "Dragoon": {
          "label": "Dragoon",
          "description": "Much like the dragons whose names are similar to theirs, Dragoons can be found soaring through the sky, not via wing power, instead with jump power.  ",
          "hit_dice": "d10",
          "skill_points": 4,
          "bab": 1.0,
          "fort": "Good",
          "ref": "Good",
          "will": "Bad"
        },
        "Fighter": {
          "label": "Fighter",
          "description": "Masters of martial prowess, Fighters of the party cannot be stopped once they pick up their chosen weapon.  ",
          "hit_dice": "d10",
          "skill_points": 4,
          "bab": 1.0,
          "fort": "Good",
          "ref": "Bad",
          "will": "Bad"
        },
        "Knight": {
          "label": "Knight",
          "description": "Knights are noble soldiers whose shield arm, once placed between their foes and allies, will not be moved.  ",
          "hit_dice": "d12",
          "skill_points": 4,
          "bab": 1.0,
          "fort": "Good",
          "ref": "Bad",
          "will": "Good"
        },
        "Monk": {
          "label": "Monk",
          "description": "Monks are thoughtful unarmed fighters that have learned to tap into the Ki around them. ",
          "hit_dice": "d10",
          "skill_points": 4,
          "bab": 1.0,
          "fort": "Good",
          "ref": "Good",
          "will": "Bad"
        },
        "Red Mage": {
          "label": "Red Mage",
          "description": "Jacks of all trades but masters of none, Red Mages will make sure that your victory will be achieved with style.  ",
          "hit_dice": "d8",
          "skill_points": 6,
          "bab": 0.75,
          "fort": "Good",
          "ref": "Bad",
          "will": "Good"
        },
        "Thief": {
          "label": "Thief",
          "description": "Quick in hand, foot, and mind, Thieves will keep your enemies on their toes.  ",
          "hit_dice": "d8",
          "skill_points": 8,
          "bab": 0.75,
          "fort": "Bad",
          "ref": "Good",
          "will": "Bad"
        },
        "White Mage": {
          "label": "White Mage",
          "description": "White Mages specialize in magic to help the party, whether heals or empowerments. ",
          "hit_dice": "d6",
          "skill_points": 4,
          "bab": 0.5,
          "fort": "Bad",
          "ref": "Bad",
          "will": "Good"
        },
        "Astrologian": {
          "label": "Astrologian",
          "description": "Predictors of future events, Astrologians know the secrets to changing the fates of those around them.  ",
          "hit_dice": "d6",
          "skill_points": 4,
          "bab": 0.5,
          "fort": "Bad",
          "ref": "Bad",
          "will": "Good"
        },
        "Berserker": {
          "label": "Berserker",
          "description": "Berserkers are brutal ragers from beyond the edge of civilized lands. ",
          "hit_dice": "d12",
          "skill_points": 4,
          "bab": 1.0,
          "fort": "Good",
          "ref": "Bad",
          "will": "Bad"
        },
        "Blue Mage": {
          "label": "Blue Mage",
          "description": "Blue Mages fight fire with fire, learning the attacks of the monsters they fight to throw right back. ",
          "hit_dice": "d8",
          "skill_points": 6,
          "bab": 0.75,
          "fort": "Bad",
          "ref": "Bad",
          "will": "Good"
        },
        "Chemist": {
          "label": "Chemist",
          "description": "Creators of alchemical items, Chemists are masters at the use of potions and explosives.  ",
          "hit_dice": "d8",
          "skill_points": 4,
          "bab": 0.75,
          "fort": "Good",
          "ref": "Good",
          "will": "Bad"
        },
        "Chocobo Knight": {
          "label": "Chocobo Knight",
          "description": "Chocobo Knights ride their steed into battle, challenging the enemy into attacking them instead of their allies.  ",
          "hit_dice": "d10",
          "skill_points": 4,
          "bab": 1.0,
          "fort": "Good",
          "ref": "Bad",
          "will": "Bad"
        },
        "Cleric": {
          "label": "Cleric",
          "description": "Obtaining power from their deity, Clerics are capable of powerful miracles. ",
          "hit_dice": "d8",
          "skill_points": 4,
          "bab": 0.75,
          "fort": "Good",
          "ref": "Bad",
          "will": "Good"
        },
        "Dark Knight": {
          "label": "Dark Knight",
          "description": "Sacrificing their health to gain darkness’s favor, Dark Knights’ aggressive actions on the battlefield protects their allies and inspires them to greater aggression themselves.  ",
          "hit_dice": "d10",
          "skill_points": 4,
          "bab": 1.0,
          "fort": "Good",
          "ref": "Bad",
          "will": "Good"
        },
        "Engineer": {
          "label": "Engineer",
          "description": "Engineers experiment with gears and wires until something beautiful (and probably deadly) is made.  ",
          "hit_dice": "d8",
          "skill_points": 4,
          "bab": 0.75,
          "fort": "Good",
          "ref": "Good",
          "will": "Bad"
        },
        "Gambler": {
          "label": "Gambler",
          "description": "Gamblers are a lucky sort, able to rely on chance and charm in any situation. ",
          "hit_dice": "d8",
          "skill_points": 6,
          "bab": 0.75,
          "fort": "Bad",
          "ref": "Good",
          "will": "Bad"
        },
        "Geomancer": {
          "label": "Geomancer",
          "description": "The land has mighty power, and Geomancers are the wielders of it. ",
          "hit_dice": "d8",
          "skill_points": 4,
          "bab": 0.75,
          "fort": "Good",
          "ref": "Bad",
          "will": "Good"
        },
        "Gunner": {
          "label": "Gunner",
          "description": "Gunners use grit and gunpowder to punch holes in their enemies. ",
          "hit_dice": "d8",
          "skill_points": 4,
          "bab": 0.75,
          "fort": "Bad",
          "ref": "Good",
          "will": "Bad"
        },
        "Holy Knight": {
          "label": "Holy Knight",
          "description": "Holy Knights guide their party by divine light, healing those who have been harmed and shielding those in harms way.  ",
          "hit_dice": "d10",
          "skill_points": 4,
          "bab": 1.0,
          "fort": "Good",
          "ref": "Bad",
          "will": "Good"
        },
        "Illusionist": {
          "label": "Illusionist",
          "description": "Never trust your eyes around Illusionists, their deceptive skill goes far beyond mere words.  ",
          "hit_dice": "d6",
          "skill_points": 4,
          "bab": 0.5,
          "fort": "Bad",
          "ref": "Bad",
          "will": "Good"
        },
        "Medic": {
          "label": "Medic",
          "description": "Even non-magical people can heal their allies, as the Medic can attest. ",
          "hit_dice": "d8",
          "skill_points": 4,
          "bab": 0.75,
          "fort": "Good",
          "ref": "Good",
          "will": "Bad"
        },
        "Necromancer": {
          "label": "Necromancer",
          "description": "Necromancers turn death into an art, and they often need more paint.  ",
          "hit_dice": "d6",
          "skill_points": 4,
          "bab": 0.5,
          "fort": "Bad",
          "ref": "Bad",
          "will": "Good"
        },
        "Summoner": {
          "label": "Summoner",
          "description": "Summoners are masters of conjuring monsters to assist them in their time of need. ",
          "hit_dice": "d6",
          "skill_points": 4,
          "bab": 0.5,
          "fort": "Bad",
          "ref": "Bad",
          "will": "Good"
        },
        "Time Mage": {
          "label": "Time Mage",
          "description": "Many people believe that time is immutable. Time Mages are extremely capable of disproving that.  ",
          "hit_dice": "d6",
          "skill_points": 4,
          "bab": 0.5,
          "fort": "Bad",
          "ref": "Bad",
          "will": "Good"
        },
        "Black Belt": {
          "label": "Black Belt",
          "description": "Lacking the armor of the Fighter or the spiritualism of the Monk, Black Belts use their adaptability to their advantage.  ",
          "hit_dice": "d10",
          "skill_points": 4,
          "bab": 1.0,
          "fort": "Good",
          "ref": "Good",
          "will": "Bad"
        },
        "Dancer": {
          "label": "Dancer",
          "description": "Combining the style of the Bard with the martial talent of the Monk, Dancers are agile fighters capable of inspiring allies and harming foes. ",
          "hit_dice": "d8",
          "skill_points": 4,
          "bab": 0.75,
          "fort": "Good",
          "ref": "Good",
          "will": "Bad"
        },
        "Druid": {
          "label": "Druid",
          "description": "Taking the animal compansionship of a beastmaster and the spellcasting and features of a geomancer, Druids get a variety of animal and plant spells and abilities that help them prosper. ",
          "hit_dice": "d8",
          "skill_points": 4,
          "bab": 0.75,
          "fort": "Good",
          "ref": "Bad",
          "will": "Good"
        },
        "Fencer": {
          "label": "Fencer",
          "description": "Style and grace are all Fencers need to become as agile as a Gunner but as powerful as a Fighter. ",
          "hit_dice": "d10",
          "skill_points": 4,
          "bab": 1.0,
          "fort": "Bad",
          "ref": "Good",
          "will": "Bad"
        },
        "Gunbreaker": {
          "label": "Gunbreaker",
          "description": "Sturdy as a Knight, deadly as a Gunner, Gunbreakers break the mold as offensive melee gunslingers.  ",
          "hit_dice": "d10",
          "skill_points": 4,
          "bab": 1.0,
          "fort": "Good",
          "ref": "Good",
          "will": "Bad"
        },
        "Ninja": {
          "label": "Ninja",
          "description": "Silent as a Thief, agile as a Monk, Ninjas are master assassins.  ",
          "hit_dice": "d8",
          "skill_points": 6,
          "bab": 0.75,
          "fort": "Bad",
          "ref": "Good",
          "will": "Bad"
        },
        "Samurai": {
          "label": "Samurai",
          "description": "Masters of the eastern weapons, Samurais are honorable warrior-monks. ",
          "hit_dice": "d10",
          "skill_points": 4,
          "bab": 1.0,
          "fort": "Good",
          "ref": "Bad",
          "will": "Good"
        },
        "Scholar": {
          "label": "Scholar",
          "description": "Scholars are skilled with both White and Black magic. ",
          "hit_dice": "d6",
          "skill_points": 4,
          "bab": 0.5,
          "fort": "Bad",
          "ref": "Bad",
          "will": "Good"
        },
        "Sword Saint": {
          "label": "Sword Saint",
          "description": "Defenses as a Knight and offenses as a Fighter, once Sword Saints have their weapons out, they’ve committed themselves to slaying their foes, and often do. ",
          "hit_dice": "d10",
          "skill_points": 4,
          "bab": 1.0,
          "fort": "Good",
          "ref": "Bad",
          "will": "Good"
        },
        "Arithmetician": {
          "label": "Arithmetician",
          "description": "It is said that no amount of mages can pinpoint what pushes magic to flow. Arithmeticians believe that it can be broken down to simple mathematical equations. With them, they are able to manipulate magic to the situation that it is needed. Only after years of study is it easy enough to break down and figure it out on the fly. Being this way makes a person very precise and articulate in everything they do. These calculating strategists employ the principles of arithmetic law to pinpoint targets for their attacks.",
          "hit_dice": "d6",
          "skill_points": 4,
          "bab": 0.5,
          "fort": "Bad",
          "ref": "Bad",
          "will": "Good"
        },
        "Freelancer": {
          "label": "Freelancer",
          "description": "They are often called jack of all trades, master of none, but sometime are better at copying the trades they learn than others. It is these that are far less common and far more dangerous.",
          "hit_dice": "d6",
          "skill_points": 4,
          "bab": 0.5,
          "fort": "Bad",
          "ref": "Bad",
          "will": "Bad"
        },
        "Commonfolk": {
          "label": "Commonfolk",
          "description": "Countless people are counted among the commonfolk, and this person is no different. Little money, little experience, and little chance outside of the protective walls. What they lack in individual strength they make up for in a strong and tight-knit community.  ",
          "hit_dice": "d6",
          "skill_points": 2,
          "bab": 0.5,
          "fort": "Good",
          "ref": "Bad",
          "will": "Bad"
        },
        "Influencer": {
          "label": "Influencer",
          "description": "Mingling amongst the commoners, influencers are townsfolk who have a higher standing within a settlement, either due to their own actions or passed down to them through hereditary.  ",
          "hit_dice": "d6",
          "skill_points": 4,
          "bab": 0.5,
          "fort": "Bad",
          "ref": "Bad",
          "will": "Good"
        },
        "Lil Witch": {
          "label": "Lil Witch",
          "description": "While normal folk aren’t always wealthy or lucky enough to gain teaching for magics or even afford the books to do so, there are a few that pick it up from observation or studying a single tome from the local library enough to get the basics.  ",
          "hit_dice": "d6",
          "skill_points": 2,
          "bab": 0.5,
          "fort": "Bad",
          "ref": "Bad",
          "will": "Good"
        },
        "Malefactor": {
          "label": "Malefactor",
          "description": "Whilst being a part of a settlement the malefactor has seen its best and worst features, gaining themselves a disdain for either its populace or its government. Working as robin-hoods for the people, stealing from the rich for the poor, or as fiends who take anything that is easy for them to get their hands on.  ",
          "hit_dice": "d8",
          "skill_points": 4,
          "bab": 0.75,
          "fort": "Bad",
          "ref": "Good",
          "will": "Bad"
        },
        "Martial Arts Student": {
          "label": "Martial Arts Student",
          "description": "Not all who learn the martial arts are monks. Even within the monasteries, there are those who practice the styles of the monks without ever mastering their deeper teachings. In more exotic lands where martial arts are commonplace, such as Wutai, Ala Mhigo, and Doma, Martial Arts Students are known as ‘Deshi’ (meaning students) and often serve as temple guards, escorts, and other roles that are filled by Watchpeople in other lands. The deshi is similar to the monk, without mystic abilities. He is often well trained with unarmed combat and can make a formidable opponent. Deshi lacks diverse abilities and make poor adventurers. ",
          "hit_dice": "d10",
          "skill_points": 2,
          "bab": 1.0,
          "fort": "Good",
          "ref": "Bad",
          "will": "Bad"
        },
        "Messenger": {
          "label": "Messenger",
          "description": "Having to learn some form of self-defence, the messengers of the world are no strangers to dangers on the roads, treetops, or skylines. Messengers are commonly post-moogles and post-burmecians, delivering letters and parcels around the world, distributed by the well-known Mognet system that organises all mail. The motto of messengers is “information greases the cogs of the world, and we’re the engineers”.  ",
          "hit_dice": "d8",
          "skill_points": 4,
          "bab": 0.75,
          "fort": "Bad",
          "ref": "Good",
          "will": "Bad"
        },
        "Studious Meister": {
          "label": "Studious Meister",
          "description": "Those who are wealthy or lucky enough to be put through education, books in hand and knowledge flowing along with their upbringing. Studious meisters are the first the townsfolk flock to for answers to their questions.  ",
          "hit_dice": "d6",
          "skill_points": 6,
          "bab": 0.5,
          "fort": "Bad",
          "ref": "Bad",
          "will": "Good"
        },
        "Watchman": {
          "label": "Watchman",
          "description": "When a villager works hard through training their body and knowledge of the law they are often scouted or accepted to become a part of the city watch or guards. Watchmen gain more training in arms and armor as well as slightly higher pay for a more dangerous job. ",
          "hit_dice": "d10",
          "skill_points": 2,
          "bab": 1.0,
          "fort": "Good",
          "ref": "Bad",
          "will": "Bad"
        },
        "Allagan Arcanimist": {
          "label": "Allagan Arcanimist",
          "description": "Among those who study the art of summoning, allagan arcanimists delve the deepest into the recesses of history, magical theory, and forgotten places. These practitioners are the very definition of arcane casters, as they draw upon the hidden essence of aetheric forces to power both their magic and their summoned companions—egis.",
          "hit_dice": "d6",
          "skill_points": 4,
          "bab": 0.5,
          "fort": "Bad",
          "ref": "Bad",
          "will": "Good"
        },
        "Archwizard": {
          "label": "Archwizard",
          "description": "Archwizards place no boundaries on their magical abilities and find no irreconcilable paradox in devotion to the arcane. They seek magic in all of its forms, finding no reason or logic in denying themselves instruction by limiting their knowledge to one stifling paradigm, though many are simply hungry for limitless power. No matter what their motivations, archwizards believe that perception is reality, and through the astral energies of the multiverse, that perception can be used to manipulate and control not only the nature of this reality, but destiny itself.",
          "hit_dice": "d6",
          "skill_points": 4,
          "bab": 0.5,
          "fort": "Bad",
          "ref": "Bad",
          "will": "Good"
        },
        "Azure Magister": {
          "label": "Azure Magister",
          "description": "Where other spellswords imbue their weapons with destructive magic or magically enhance their own combat capabilities, others prefer to lay the enemy low with debilitating spells before taking them to task with magically-empowered weapons. An eclectic blend of frontline fighter and offensive support, the Azure Magister controls the battlefield from the thickest of it, freely swapping between melee and spellcasting to confound and thwart his enemies while supporting his allies.",
          "hit_dice": "d8",
          "skill_points": 4,
          "bab": 0.75,
          "fort": "Good",
          "ref": "Bad",
          "will": "Good"
        },
        "Blitzer": {
          "label": "Blitzer",
          "description": "The game of Blitzball is a graceful ballet of underwater maneuvers. It is also a sometimes brutal full-contact sport with ruthless players vying for any advantage. This has led to blitzers becoming adept at ranged combat, using blitzballs as deadly weapons. They have even been known to use magic to enhance their balls, giving them spell-like properties that with affect their opponents.",
          "hit_dice": "d10",
          "skill_points": 4,
          "bab": 1.0,
          "fort": "Good",
          "ref": "Good",
          "will": "Bad"
        },
        "Celestial Knight": {
          "label": "Celestial Knight",
          "description": "Celestial Knights are a chivalrous order dedicated to guarding against the schemes of the unliving and any plots to increase their power. The order is deeply religious, composed of devoted worshipers of their god.",
          "hit_dice": "d10",
          "skill_points": 4,
          "bab": 1.0,
          "fort": "Good",
          "ref": "Bad",
          "will": "Good"
        },
        "Clan Hunter": {
          "label": "Clan Hunter",
          "description": "A bandit king raids caravans on the road. An ogre pillages farms to the north. A mage has kidnapped the mayor’s son and hidden him somewhere in the marsh—and the soldiers of the king cannot seem to stem the tide. The terrified citizens have only one choice, and it isn’t cheap. They call in a clan hunter. A clan hunter tracks down creatures and either eliminates them or brings them to whatever justice awaits them.",
          "hit_dice": "d8",
          "skill_points": 6,
          "bab": 0.75,
          "fort": "Good",
          "ref": "Good",
          "will": "Bad"
        },
        "Crownsguard": {
          "label": "Crownsguard",
          "description": "The elite warriors of lucis, these knights excel at teamwork with allies and leading them into the fray in the king’s name. Unlike a kingsglaive, these knights do not have powers from the king but still a hint of lucis magic resides within them. These knights often become crownsguard for the king and his family and make great leaders for any battlefield.",
          "hit_dice": "d10",
          "skill_points": 4,
          "bab": 1.0,
          "fort": "Good",
          "ref": "Bad",
          "will": "Good"
        },
        "Dark Emperor": {
          "label": "Dark Emperor",
          "description": "The dark emperor is a mortal hero or villain in whose veins flows the blood of a god. Cut from the same cloth as classic ancient heroes, most dark emperors are the offspring of a god and a mortal humanoid who drew the god’s eye.",
          "hit_dice": "d8",
          "skill_points": 6,
          "bab": 0.75,
          "fort": "Good",
          "ref": "Bad",
          "will": "Good"
        },
        "Dragonmaster": {
          "label": "Dragonmaster",
          "description": "The dragonmaster is one who has passed the Dragon Trials, thus gaining the allegiance of the Four Dragons. The dragonmaster’s sole purpose is to protect and aid the Goddess Althena. Their heroic tales are often the theme of many bard songs.",
          "hit_dice": "d10",
          "skill_points": 4,
          "bab": 1.0,
          "fort": "Good",
          "ref": "Bad",
          "will": "Good"
        },
        "Elemental Fist Disciple": {
          "label": "Elemental Fist Disciple",
          "description": "The elemental fist disciple is a monk that uses ki to fuel his elemental attacks to cripple his foes with status ailments. Elemental fist disciples often use martial arts to back up their variety of elemental-based ranged attacks.",
          "hit_dice": "d10",
          "skill_points": 4,
          "bab": 1.0,
          "fort": "Good",
          "ref": "Good",
          "will": "Bad"
        },
        "Elite Lancer": {
          "label": "Elite Lancer",
          "description": "An elite lancer is a mounted combat specialist par excellence. He is skilled in the arts of formal jousting, with all its pomp and ceremony and its intricate courtly rules of etiquette, but he is no less talented on the battlefield when the time comes to ride down his enemies and drive them into the dust on the point of his lance. Elite lancers are found in virtually every culture, and in many are accorded great esteem for their noble bearing and for their puissance in contests of arms. Their fame often precedes them, but some work to keep a low profile and let their steel and their steed do the talking.",
          "hit_dice": "d10",
          "skill_points": 4,
          "bab": 1.0,
          "fort": "Good",
          "ref": "Bad",
          "will": "Bad"
        },
        "General": {
          "label": "General",
          "description": "Elite commanders on the battlefield hand pick by the emperor of a country to lead his soldiers into combat and to protect him and his family. A devastating warrior who seems slow at first glance only to surprise his enemies with his charging speed and magical powers granted to him by his armor.",
          "hit_dice": "d12",
          "skill_points": 4,
          "bab": 1.0,
          "fort": "Good",
          "ref": "Bad",
          "will": "Good"
        },
        "Hardened Veteran": {
          "label": "Hardened Veteran",
          "description": "There are those who have overcome adversity, thrust into a life filled with battlefields and encounters with both monsters as well as man. Through their experiences, they grow more accustomed to the lifestyle, allowing them to better deal with adventures lush with violence.",
          "hit_dice": "d12",
          "skill_points": 2,
          "bab": 1.0,
          "fort": "Good",
          "ref": "Bad",
          "will": "Bad"
        },
        "Monarch": {
          "label": "Monarch",
          "description": "The king (or queen if female) is the ruler of an independent state, city, or region, especially one who inherits the position by right of birth.",
          "hit_dice": "d10",
          "skill_points": 4,
          "bab": 1.0,
          "fort": "Good",
          "ref": "Bad",
          "will": "Good"
        },
        "Royal Glaive": {
          "label": "Royal Glaive",
          "description": "Trained from an early age in the art of war and sworn to the service of a king, the kingsglaive holds a position of power and respect in many lands, often serving as the voice and justice of the king. Never caught unarmed, the kingsglaive is the literal interpretation of using the power of the king as a weapon. Creating a glaive is the core of the kingsglaive, and with it, she is a deadly combatant. Versatile and varied, the kingsglaive can be found in all shapes and sizes, wielding blades unique to the wielder and customized to fit the needs of the kingsglaive. Fluid in function, the kingsglaive has mastered how to alter her glaive to fit the situation, bringing power and versatility into any combat.",
          "hit_dice": "d10",
          "skill_points": 4,
          "bab": 1.0,
          "fort": "Bad",
          "ref": "Good",
          "will": "Good"
        },
        "Knight Gallant": {
          "label": "Knight Gallant",
          "description": "Noble swordsman who earn their valor and honor on the battlefield. Honing their swordskills, and becoming commanders on the battlefield, these valiant knights earn the title “Knight Gallant”. Their swordskill prowess, and presence on the battlefield is unmatched by any warrior. They are a King’s greatest sword.",
          "hit_dice": "d10",
          "skill_points": 4,
          "bab": 1.0,
          "fort": "Good",
          "ref": "Bad",
          "will": "Good"
        },
        "Mage Warrior": {
          "label": "Mage Warrior",
          "description": "Practitioners of the arcane and martial arts, mage warriors strike a balance between both disciplines to eventually become masters of both.",
          "hit_dice": "d10",
          "skill_points": 4,
          "bab": 1.0,
          "fort": "Good",
          "ref": "Bad",
          "will": "Good"
        },
        "Master": {
          "label": "Master",
          "description": "The master specializes in more complicated moves than simple damage-dealing strikes. His mastery of combat maneuvers is terrifying to see.",
          "hit_dice": "d10",
          "skill_points": 4,
          "bab": 1.0,
          "fort": "Good",
          "ref": "Good",
          "will": "Bad"
        },
        "Mediator": {
          "label": "Mediator",
          "description": "The world is a melting pot of political and social intrigues. Governments rise and fall, but one thing remains true, mediators will always be necessary at some level. Whether taking on roles as leaders of organizations, holding positions within a government, using words to fight enemies, or using their skills as negotiators and peace keepers, the mediator can fill multiple roles. They have the ability to manipulate people into doing their bidding.",
          "hit_dice": "d8",
          "skill_points": 4,
          "bab": 0.75,
          "fort": "Bad",
          "ref": "Bad",
          "will": "Good"
        },
        "Meyvn": {
          "label": "Meyvn",
          "description": "The meyvn is often the leader of small guerrilla forces, honed by rigorous training and preparation. The meyvn is a preparatory combatant that can change his battle plan for the right moment. A meyvn is often close in rank to a Commander or just below a General in a militaristic or freedom fighting organization: Acting as advisors to those with positions of power.",
          "hit_dice": "d10",
          "skill_points": 4,
          "bab": 1.0,
          "fort": "Good",
          "ref": "Bad",
          "will": "Good"
        },
        "Onyx Magister": {
          "label": "Onyx Magister",
          "description": "Masters of wielding death, Onyx Magisters grasps higher learning for his magical prowess with his spells. Onyx Magisters are the highest practitioners of the black magic arts, wielding magic with the highest proficiency.",
          "hit_dice": "d6",
          "skill_points": 4,
          "bab": 0.5,
          "fort": "Bad",
          "ref": "Bad",
          "will": "Good"
        },
        "Opal Magister": {
          "label": "Opal Magister",
          "description": "Masters of the healing art, Opal Magisters are highly sought after for their knowledge of white magic.",
          "hit_dice": "d6",
          "skill_points": 4,
          "bab": 0.5,
          "fort": "Bad",
          "ref": "Bad",
          "will": "Good"
        },
        "Raven": {
          "label": "Raven",
          "description": "Ravens are created based solely on a single criteria, loyalty. Should a member of an organization show vast loyalty and zeal for their cause, the leader can put in the orders to have a Raven made. Through the ordeal of treatment, they lose their past self and embrace servitude to the one who created them. When the treatment is complete, they are entirely a new person, their memories and personality lost in the fog, but they have the inherent knowledge to follow orders.",
          "hit_dice": "d10",
          "skill_points": 6,
          "bab": 1.0,
          "fort": "Good",
          "ref": "Good",
          "will": "Bad"
        },
        "Redeemed Knight": {
          "label": "Redeemed Knight",
          "description": "Once having walked the path of darkness you have deemed to walk the path of light again, but having succumbed to your dark side has still left a taint upon you and leaves you forever changed.",
          "hit_dice": "d10",
          "skill_points": 4,
          "bab": 1.0,
          "fort": "Good",
          "ref": "Bad",
          "will": "Good"
        },
        "Ruby Magister": {
          "label": "Ruby Magister",
          "description": "There are those who spend their lives poring over ancient tomes and texts, unlocking the power of magic, and there are those who spend their time perfecting the use of individual weapons, becoming masters without equal. The ruby magister is at once a student of both philosophies, blending magical ability and martial prowess into something entirely unique, a discipline in which both spell and steel are used to devastating effect. As he grows in power, the ruby magister at the pinnacle of his art, the ruby magister becomes a blur of steel and magic, a force that few foes would dare to stand against.",
          "hit_dice": "d8",
          "skill_points": 4,
          "bab": 0.75,
          "fort": "Good",
          "ref": "Bad",
          "will": "Good"
        },
        "Ruin Mage": {
          "label": "Ruin Mage",
          "description": "Mages of this class focus on ruin to push that spell beyond its normal limits.",
          "hit_dice": "d6",
          "skill_points": 4,
          "bab": 0.5,
          "fort": "Bad",
          "ref": "Bad",
          "will": "Good"
        },
        "SeeD Operative": {
          "label": "SeeD Operative",
          "description": "SeeD operatives are a mercenary force for hire, conducting missions around the world as battle support and undercover operatives. Their services are requested by governments and civilians; their tasks range from providing military support to protecting civilians to slaying monsters. Only Balamb Garden trains SeeD cadets, but members from the other Gardens can transfer to Balamb for the field exam. All SeeD operatives are stationed at Balamb. The SeeD operative specializes in high-level para-magic via the use of Guardian Forces.",
          "hit_dice": "d8",
          "skill_points": 6,
          "bab": 0.75,
          "fort": "Good",
          "ref": "Bad",
          "will": "Good"
        },
        "SOLDIER": {
          "label": "SOLDIER",
          "description": "SOLDIER is the elite fighting force of Shinra Electric Power Company. Its members are advanced super-soldiers with superhuman strength, speed, and agility. Much stronger than the Shinra Peacekeeping Troops and the Turks, Shinra uses SOLDIER for special missions that require the greatest use of strength.",
          "hit_dice": "d10",
          "skill_points": 4,
          "bab": 1.0,
          "fort": "Good",
          "ref": "Good",
          "will": "Bad"
        },
        "Turk": {
          "label": "Turk",
          "description": "An intelligence bureau for the Shinra Corporation, the turks specialize in a myriad of clandestine operations from reconnaissance, espionage, black ops to kidnapping, sabotage, and even assassinations. In many ways, they are a fraternal order with an eclectic membership from thieves and street performers to trained martial artists and gunslingers. However as myriad as they are in background, all Turks are well dressed professionals who get the job done. What matters to a turk first and foremost is the bottom line and any concerns such as friends and family are secondary. Becoming a turk means becoming one for life, the only way out is in a body-bag.",
          "hit_dice": "d8",
          "skill_points": 8,
          "bab": 0.75,
          "fort": "Bad",
          "ref": "Good",
          "will": "Good"
        },
        "Weapon Collector": {
          "label": "Weapon Collector",
          "description": "A master of all weapons. He collects weapons either for his own pride and joy in the training of such weapons, or sometimes as trophies of strong adversaries. Whatever the reason may be, the weapon collector journeys across the world to find the strongest weapons.",
          "hit_dice": "d10",
          "skill_points": 4,
          "bab": 1.0,
          "fort": "Good",
          "ref": "Good",
          "will": "Bad"
        }
      },
      "archetypes": {

      },
      "skills": {

      },
      "feats": {

      }
    }
  },
  "Item": {
    "types": ["item"],
    "item": {
      "description": "",
      "quantity": 1,
      "weight": 0,
      "attributes": {},
      "groups": {}
    }
  }
}
